{
  "kind": "collectionType",
  "collectionName": "pages",
  "info": {
    "name": "pages"
  },
  "options": {
    "increments": true,
    "timestamps": true
  },
  "attributes": {
    "Headline": {
      "type": "string"
    },
    "body": {
      "type": "richtext"
    },
    "headlinePicture": {
      "model": "file",
      "via": "related",
      "allowedTypes": [
        "images",
        "files",
        "videos"
      ],
      "plugin": "upload",
      "required": false
    },
    "slug": {
      "type": "string"
    }
  }
}
